week_1
…
#Cmax и tmax

#Берем максимальные значения концентрации и соответствующего времени

pk_cmax_tmax <-  Jones_1984 %>%
  group_by(subject_id) %>%
  summarise(
    Cmax_g_per_L = max(conc_g_per_L),
    tmax_min = time_min[which.max(conc_g_per_L)]
  )

pk_cmax_tmax

# A tibble: 48 × 3
   subject_id Cmax_g_per_L tmax_min
        <dbl>        <dbl>    <dbl>
 1          1         0.94       30
 2          2         0.98       30
 3          3         0.98       30
 4          4         0.66       90
 5          5         0.58      120
 6          6         0.77       90
 7          7         0.88       30
 8          8         1.09       30
 9          9         0.96       30
10         10         0.9        60
# ℹ 38 more rows
…
pk_auc <- Jones_1984 %>%
  group_by( subject_id) %>%
  arrange(time_min) %>%
  mutate(time_h = time_min / 60) %>%
  summarise(
    AUC0_t_g_h_per_L = sum(
      (lead(time_h) - time_h) * (conc_g_per_L + lead(conc_g_per_L)) / 2, #lead берет следующее значение для каждой строки
      na.rm = TRUE
    ),
    .groups = "drop"
  )

pk_auc

# A tibble: 48 × 2
   subject_id AUC0_t_g_h_per_L
        <dbl>            <dbl>
 1          1             3.24
 2          2             3.07
 3          3             3.22
 4          4             2.97
 5          5             2.4 
 6          6             3.27
 7          7             3.28
 8          8             3.43
 9          9             3.36
10         10             3.66
# ℹ 38 more rows
…
